material shockwave
{
    technique
    {

        pass
        {
             vertexShader = res/shaders/shockwave.vert
             fragmentShader = res/shaders/shockwave.frag

             u_worldMatrix = WORLD_MATRIX
             u_worldViewProjectionMatrix = WORLD_VIEW_PROJECTION_MATRIX
             u_cameraPosition = CAMERA_WORLD_POSITION

             sampler u_normalMap
             {
                 mipmap = true
                 wrapS = REPEAT
                 wrapT = REPEAT
                 minFilter = LINEAR_MIPMAP_LINEAR
                 magFilter = LINEAR

                 path = res/shockwave_normal.png
             }

             renderState
             {
                 cullFace = true
                 depthTest = true
             }
         }
     }
}

