particle fire
{
    sprite
    {
        path = fire.png
        width = 256
        height = 256
        blendMode = ADDITIVE
        animated = false
        looped = false
        frameCount = 3
        frameRandomOffset = 3
        frameDuration = 0
    }

    particleCountMax = 5000
    emissionRate = 0
    ellipsoid = true
    orbitPosition = true
    orbitVelocity = true
    orbitAcceleration = true
    sizeStartMin = 0.15
    sizeStartMax = 0.35
    sizeEndMin = 0.35
    sizeEndMax = 0.65
    energyMin = 200
    energyMax = 350
    colorStart = 1, 0.2, 0, 1
    colorStartVar = 0.25, 0, 0, 0
    colorEnd = 0, 0, 0, 0
    colorEndVar = 0, 0, 0, 0
    position = 0, 0, 0
    positionVar = 0.116049, 0.201235, 0.348148
    velocity = 4, 0, 0
    velocityVar = 2, 0, 0
    acceleration = 0, 10, 0
    accelerationVar = 0.277778, 0.524691, 0.895062
    rotationPerParticleSpeedMin = -1.5
    rotationPerParticleSpeedMax = 1.5

    editor
    {
        cameraTranslation = 0.22, 2.7, 0
        cameraZoom = 0, 0, 13.3
        cameraRotation = 0, 0, 0, 0
        sizeMax = 5
        energyMax = 1500
    }
}
